{
  "users": [
    {
      "email": "thatra94@gmail.com",
      "translations": [
        "sadf"
      ],
      "id": 1
    },
    {
      "email": "thatra94@gmail.com",
      "translations": [],
      "id": 2
    },
    {
      "email": "thatra94@gmail.com",
      "translations": [],
      "id": 3
    }
  ]
}